{"equip_location_maintrack": null, "rptrlocation": "Other", "reporter_other": null, "equip_type_motorvehicle": null, "activity_installation": null, "activity_other_writein": null, "activity_repairreplace": null, "reporter_electrician": null, "equip_location_othertrack": null, "shiftduringevent_assignedshift": "Y", "weather_wind": null, "weather_clear": null, "lightvisibility_workarea": null, "equip_rules_roadwayworker": null, "reporter_other_writein": null, "equip_type_crane": null, "reporter_plumber": null, "rptrexperience_railroad": "27", "equip_type_ontrackequipment": null, "weather_snow": null, "activity_inspection": null, "activity_construction": null, "prt_send": null, "equip_location_other_writein": null, "reporter_laborer": null, "reporter_foreman": null, "lightvisibility_reducedvis": null, "equip_location_adjacenttrack": null, "lightvisibility_reducedvis_ft": null, "shiftduringevent_emergencyduty": null, "shiftduringevent_other": null, "equip_type_portablehandtools": null, "equip_rules_autotrainstop": null, "equip_rules_otherthanmain": "Y", "weather_fog": null, "equip_rules_other_writein": null, "weather_hazesmoke": null, "equip_type_offtrackequipment": null, "equip_rules_autocabsignal": null, "reporter_trainee": null, "equip_type_other": null, "equip_location_publicroadway": null, "reporter_signalman": null, "weather_ice": null, "weather_rain": null, "activity_blockjackrerail": null, "reporter_mechanic": null, "equip_rules_directtraffic": null, "rptrlocation_box1": null, "equip_oprules_other_writein": null, "reporter_signalmaintainer": null, "rptrexperience_craft": "25", "shiftduringevent_overtimeduty": null, "describeevent_narrative": "After receiving permission from Babylon Yard Master I sounded the horn and proceeded west A LIRR employee drove an auto across the tracks in front of the train I stopped the train and did not strike the vehicle When he cleared the tracks I proceeded west.\nAfter receiving permission from Babylon Yard Master I sounded the horn and proceeded west A LIRR employee drove an auto across the tracks in front of the train I stopped the train and did not strike the vehicle When he cleared the tracks I proceeded west.\nAfter receiving permission from Babylon Yard Master I sounded the horn and proceeded west A LIRR employee drove an auto across the tracks in front of the train I stopped the train and did not strike the vehicle When he cleared the tracks I proceeded west.\nAfter receiving permission from Babylon Yard Master I sounded the horn and proceeded west A LIRR employee drove an auto across the tracks in front of the train I stopped the train and did not strike the vehicle When he cleared the tracks I proceeded west.\nAfter receiving permission from Babylon Yard Master I sounded the horn and proceeded west A LIRR employee drove an auto across the tracks in front of the train I stopped the train and did not strike the vehicle When he cleared the tracks I proceeded west.\nAfter receiving permission from Babylon Yard Master I sounded the horn and proceeded west A LIRR employee drove an auto across the tracks in front of the train I stopped the train and did not strike the vehicle When he cleared the tracks I proceeded west.\nAfter receiving permission from Babylon Yard Master I sounded the horn and proceeded west A LIRR employee drove an auto across the tracks in front of the train I stopped the train and did not strike the vehicle When he cleared the tracks I proceeded west.After receiving permission from Babylon Yard Master I sounded the horn and proceeded west A LIRR employee drove an auto across the tracks in front of the train I stopped the train and did not strike the vehicle When he cleared the tracks I proceeded west.After receiving permission from Babylon Yard Master I sounded the horn and proceeded west A LIRR employee drove an auto across the tracks in front of the train I stopped the train and did not strike the vehicle When he cleared the tracks I proceeded west.After receiving permission from Babylon Yard Master I sounded the horn and proceeded west A LIRR employee drove an auto across the tracks in front of the train I stopped the train and did not strike the vehicle When he cleared the tracks I proceeded west.\n***** OVERFLOW TEXT *****\nType_Event_Situation: ['near miss']\n\n", "reporter_technician": null, "activity_scheduledmaint": null, "equip_location_other": null, "activity_opvehicleequipment": "Y", "reporter_lineman": null, "equip_rules_interlocking": null, "workgroupsize": "3", "reporter_box1": null, "activity_other": null, "equip_rules_trackwarrant": null, "equip_rules_darkterritory": null, "log_id": "ERS_H 2015-07-16 10:33:57.022788", "reporter_machineoperator": null, "equip_location_yard": "Y", "weather_other_writein": "cloudy", "weather_other": "Y", "rptrlocation_other_writein": "locomotive cab", "equip_location_shop": null, "equip_oprules": null, "weather_hail": null, "equip_rules_campcarprotection": null, "reporter_tracksupervisor": null, "activity_briefings": null, "equip_rules_yardlimits": null, "activity_testing": null, "activity_documentation": null, "reporter_craneoperator": null, "reporter_carpenter": null, "shiftduringevent_hoursinto": null, "reporter_cdlvehicleoperator": null, "shiftduringevent_other_writein": null, "equip_rules_positivetrain": null, "weather_thunderstormlightning": null, "equip_rules_autoblocksignal": null, "equip_rules_other": null, "lightvisibility_light": "Daylight", "equip_type_other_writein": null, "reporter_signalinspectortester": null, "equip_rules_centralizedtraffic": null}
{"equip_location_maintrack": null, "rptrlocation": "Adjacent to track / on ground", "reporter_other": null, "equip_type_motorvehicle": "Y", "activity_installation": null, "activity_other_writein": null, "activity_repairreplace": null, "reporter_electrician": null, "equip_location_othertrack": null, "shiftduringevent_assignedshift": "Y", "weather_wind": null, "weather_clear": "Y", "lightvisibility_workarea": null, "equip_rules_roadwayworker": null, "reporter_other_writein": null, "equip_type_crane": null, "reporter_plumber": null, "rptrexperience_railroad": "27", "equip_type_ontrackequipment": null, "weather_snow": null, "activity_inspection": null, "activity_construction": null, "prt_send": null, "equip_location_other_writein": null, "reporter_laborer": null, "reporter_foreman": null, "lightvisibility_reducedvis": null, "equip_location_adjacenttrack": null, "lightvisibility_reducedvis_ft": null, "shiftduringevent_emergencyduty": null, "shiftduringevent_other": null, "equip_type_portablehandtools": null, "equip_rules_autotrainstop": null, "equip_rules_otherthanmain": null, "weather_fog": null, "equip_rules_other_writein": null, "weather_hazesmoke": null, "equip_type_offtrackequipment": null, "equip_rules_autocabsignal": null, "reporter_trainee": null, "equip_type_other": null, "equip_location_publicroadway": null, "reporter_signalman": null, "weather_ice": null, "weather_rain": null, "activity_blockjackrerail": null, "reporter_mechanic": null, "equip_rules_directtraffic": null, "rptrlocation_box1": "Yard", "equip_oprules_other_writein": null, "reporter_signalmaintainer": null, "rptrexperience_craft": "18", "shiftduringevent_overtimeduty": null, "describeevent_narrative": "On june 16, 2015 at apox 1:15pm While a vehicle crossed a yard track in babylon a train began movement then stopped when the engineer saw the vehicle. After the vehicle crossed The engineer then sounded horn the horn twice and began moving again. Vehicle operator was approached by an fra inspector and discussed the incident. \n***** OVERFLOW TEXT *****\nType_Event_Situation: ['close call']\n\nEquip_OpRules: ['MOW Rules']\n\n", "reporter_technician": null, "activity_scheduledmaint": null, "equip_location_other": null, "activity_opvehicleequipment": "Y", "reporter_lineman": null, "equip_rules_interlocking": null, "workgroupsize": "3", "reporter_box1": "Maintenance of Way", "activity_other": null, "equip_rules_trackwarrant": null, "equip_rules_darkterritory": null, "log_id": "ERS_H 2015-07-16 10:29:13.610831", "reporter_machineoperator": null, "equip_location_yard": "Y", "weather_other_writein": null, "weather_other": null, "rptrlocation_other_writein": null, "equip_location_shop": null, "equip_oprules": "MOW Rules", "weather_hail": null, "equip_rules_campcarprotection": null, "reporter_tracksupervisor": "Y", "activity_briefings": "Y", "equip_rules_yardlimits": null, "activity_testing": null, "activity_documentation": null, "reporter_craneoperator": null, "reporter_carpenter": null, "shiftduringevent_hoursinto": "6", "reporter_cdlvehicleoperator": null, "shiftduringevent_other_writein": null, "equip_rules_positivetrain": null, "weather_thunderstormlightning": null, "equip_rules_autoblocksignal": null, "equip_rules_other": null, "lightvisibility_light": "Daylight", "equip_type_other_writein": null, "reporter_signalinspectortester": null, "equip_rules_centralizedtraffic": null}
{"equip_location_maintrack": null, "rptrlocation": null, "reporter_other": "Y", "equip_type_motorvehicle": null, "activity_installation": null, "activity_other_writein": null, "activity_repairreplace": null, "reporter_electrician": null, "equip_location_othertrack": null, "shiftduringevent_assignedshift": "Y", "weather_wind": null, "weather_clear": "Y", "lightvisibility_workarea": null, "equip_rules_roadwayworker": null, "reporter_other_writein": "engineer", "equip_type_crane": null, "reporter_plumber": null, "rptrexperience_railroad": "13", "equip_type_ontrackequipment": null, "weather_snow": null, "activity_inspection": null, "activity_construction": null, "prt_send": null, "equip_location_other_writein": null, "reporter_laborer": null, "reporter_foreman": null, "lightvisibility_reducedvis": null, "equip_location_adjacenttrack": null, "lightvisibility_reducedvis_ft": null, "shiftduringevent_emergencyduty": null, "shiftduringevent_other": null, "equip_type_portablehandtools": null, "equip_rules_autotrainstop": "Y", "equip_rules_otherthanmain": null, "weather_fog": null, "equip_rules_other_writein": null, "weather_hazesmoke": null, "equip_type_offtrackequipment": null, "equip_rules_autocabsignal": "Y", "reporter_trainee": null, "equip_type_other": null, "equip_location_publicroadway": null, "reporter_signalman": null, "weather_ice": null, "weather_rain": null, "activity_blockjackrerail": null, "reporter_mechanic": null, "equip_rules_directtraffic": null, "rptrlocation_box1": "Yard", "equip_oprules_other_writein": "lirr", "reporter_signalmaintainer": null, "rptrexperience_craft": "13", "shiftduringevent_overtimeduty": null, "describeevent_narrative": "Upon arriving at a station, train A was held in station for over 10 minutes. After receiving a clear signal to proceed to the yard on the lead, the train proceeded west to the next signal, at which point the engineer encountered an approach signal. The train continued west and could see a restricting aspect on the next signal, at this point in time the Yardmaster instructed train A to come to a safe stop and all train movement in the yard was stopped. The train crew was then informed of a possible stop signal violation. After approximately an hour and 30 minutes the signal department ascertained that there was no stop signal violation and the train crew was relieved from duty. Construction in the yard is ongoing, and the crew was informed that this was the 3rd such 'false stop signal' violation in 2 days.\nUpon arriving at a station, train A was held in station for over 10 minutes. After receiving a clear signal to proceed to the yard on the lead, the train proceeded west to the next signal, at which point the engineer encountered an approach signal. The train continued west and could see a restricting aspect on the next signal, at this point in time the Yardmaster instructed train A to come to a safe stop and all train movement in the yard was stopped. The train crew was then informed of a possible stop signal violation. After approximately an hour and 30 minutes the signal department ascertained that there was no stop signal violation and the train crew was relieved from duty. Construction in the yard is ongoing, and the crew was informed that this was the 3rd such 'false stop signal' violation in 2 days.\nUpon arriving at a station, train A was held in station for over 10 minutes. After receiving a clear signal to proceed to the yard on the lead, the train proceeded west to the next signal, at which point the engineer encountered an approach signal. The train continued west and could see a restricting aspect on the next signal, at this point in time the Yardmaster instructed train A to come to a safe stop and all train movement in the yard was stopped. The train crew was then informed of a possible stop signal violation. After approximately an hour and 30 minutes the signal department ascertained that there was no stop signal violation and the train crew was relieved from duty. Construction in the yard is ongoing, and the crew was informed that this was the 3rd such 'false stop signal' violation in 2 days.\nUpon arriving at a station, train A was held in station for over 10 minutes. After receiving a clear signal to proceed to the yard on the lead, the train proceeded west to the next signal, at which point the engineer encountered an approach signal. The train continued west and could see a restricting aspect on the next signal, at this point in time the Yardmaster instructed train A to come to a safe stop and all train movement in the yard was stopped. The train crew was then informed of a possible stop signal violation. After approximately an hour and 30 minutes the signal department ascertained that there was no stop signal violation and the train crew was relieved from duty. Construction in the yard is ongoing, and the crew was informed that this was the 3rd such 'false stop signal' violation in 2 days.\nUpon arriving at a station, train A was held in station for over 10 minutes. After receiving a clear signal to proceed to the yard on the lead, the train proceeded west to the next signal, at which point the engineer encountered an approach signal. The train continued west and could see a restricting aspect on the next signal, at this point in time the Yardmaster instructed train A to come to a safe stop and all train movement in the yard was stopped. The train crew was then informed of a possible stop signal violation. After approximately an hour and 30 minutes the signal department ascertained that there was no stop signal violation and the train crew was relieved from duty. Construction in the yard is ongoing, and the crew was informed that this was the 3rd such 'false stop signal' violation in 2 days.\nUpon arriving at a station, train A was held in station for over 10 minutes. After receiving a clear signal to proceed to the yard on the lead, the train proceeded west to the next signal, at which point the engineer encountered an approach signal. The train continued west and could see a restricting aspect on the next signal, at this point in time the Yardmaster instructed train A to come to a safe stop and all train movement in the yard was stopped. The train crew was then informed of a possible stop signal violation. After approximately an hour and 30 minutes the signal department ascertained that there was no stop signal violation and the train crew was relieved from duty. Construction in the yard is ongoing, and the crew was informed that this was the 3rd such 'false stop signal' violation in 2 days.\n***** OVERFLOW TEXT *****\nEquip_OpRules_Other_writein: ['lirr']\n\nType_Event_Situation: ['False stop signal violation']\n\n", "reporter_technician": null, "activity_scheduledmaint": null, "equip_location_other": null, "activity_opvehicleequipment": null, "reporter_lineman": null, "equip_rules_interlocking": "Y", "workgroupsize": "2", "reporter_box1": null, "activity_other": null, "equip_rules_trackwarrant": null, "equip_rules_darkterritory": null, "log_id": "ERS_H 2015-07-16 10:23:54.845561", "reporter_machineoperator": null, "equip_location_yard": "Y", "weather_other_writein": null, "weather_other": null, "rptrlocation_other_writein": null, "equip_location_shop": null, "equip_oprules": "Other", "weather_hail": null, "equip_rules_campcarprotection": null, "reporter_tracksupervisor": null, "activity_briefings": null, "equip_rules_yardlimits": null, "activity_testing": "Y", "activity_documentation": null, "reporter_craneoperator": null, "reporter_carpenter": null, "shiftduringevent_hoursinto": "6", "reporter_cdlvehicleoperator": null, "shiftduringevent_other_writein": null, "equip_rules_positivetrain": null, "weather_thunderstormlightning": null, "equip_rules_autoblocksignal": "Y", "equip_rules_other": null, "lightvisibility_light": "Daylight", "equip_type_other_writein": null, "reporter_signalinspectortester": null, "equip_rules_centralizedtraffic": "Y"}
{"equip_location_maintrack": null, "rptrlocation": null, "reporter_other": null, "equip_type_motorvehicle": null, "activity_installation": null, "activity_other_writein": null, "activity_repairreplace": null, "reporter_electrician": null, "equip_location_othertrack": null, "shiftduringevent_assignedshift": "Y", "weather_wind": null, "weather_clear": "Y", "lightvisibility_workarea": null, "equip_rules_roadwayworker": null, "reporter_other_writein": null, "equip_type_crane": null, "reporter_plumber": null, "rptrexperience_railroad": "15.5", "equip_type_ontrackequipment": null, "weather_snow": null, "activity_inspection": null, "activity_construction": null, "prt_send": null, "equip_location_other_writein": null, "reporter_laborer": null, "reporter_foreman": null, "lightvisibility_reducedvis": null, "equip_location_adjacenttrack": null, "lightvisibility_reducedvis_ft": null, "shiftduringevent_emergencyduty": null, "shiftduringevent_other": null, "equip_type_portablehandtools": null, "equip_rules_autotrainstop": null, "equip_rules_otherthanmain": null, "weather_fog": null, "equip_rules_other_writein": null, "weather_hazesmoke": null, "equip_type_offtrackequipment": null, "equip_rules_autocabsignal": null, "reporter_trainee": "Y", "equip_type_other": null, "equip_location_publicroadway": null, "reporter_signalman": null, "weather_ice": null, "weather_rain": null, "activity_blockjackrerail": null, "reporter_mechanic": null, "equip_rules_directtraffic": null, "rptrlocation_box1": "Yard", "equip_oprules_other_writein": "LIRR", "reporter_signalmaintainer": null, "rptrexperience_craft": "12.5", "shiftduringevent_overtimeduty": null, "describeevent_narrative": "While departing Penn Station track X for Westside Yard received signals to enter yard. Upon approaching signal 28R in Westside yard which was displaying a restricting signal, was ordered by operator in Westside yard to bring train to stop. After stopping train was told of possible 292 violation. After waiting for supervision and M of E department to finish investigation, which was approximately 90 minutes, was released and informed by supervision there was no 292 violation. \n***** OVERFLOW TEXT *****\nEquip_OpRules_Other_writein: ['LIRR']\n\nType_Event_Situation: [' False 292 violation']\n\n", "reporter_technician": null, "activity_scheduledmaint": null, "equip_location_other": null, "activity_opvehicleequipment": null, "reporter_lineman": null, "equip_rules_interlocking": "Y", "workgroupsize": "3", "reporter_box1": null, "activity_other": null, "equip_rules_trackwarrant": null, "equip_rules_darkterritory": null, "log_id": "ERS_H 2015-07-16 10:18:43.031194", "reporter_machineoperator": null, "equip_location_yard": "Y", "weather_other_writein": null, "weather_other": null, "rptrlocation_other_writein": null, "equip_location_shop": null, "equip_oprules": "Other", "weather_hail": null, "equip_rules_campcarprotection": null, "reporter_tracksupervisor": null, "activity_briefings": null, "equip_rules_yardlimits": null, "activity_testing": "Y", "activity_documentation": null, "reporter_craneoperator": null, "reporter_carpenter": null, "shiftduringevent_hoursinto": null, "reporter_cdlvehicleoperator": null, "shiftduringevent_other_writein": null, "equip_rules_positivetrain": null, "weather_thunderstormlightning": null, "equip_rules_autoblocksignal": null, "equip_rules_other": null, "lightvisibility_light": "Daylight", "equip_type_other_writein": null, "reporter_signalinspectortester": null, "equip_rules_centralizedtraffic": "Y"}
{"equip_location_maintrack": null, "rptrlocation": "Adjacent to track / on ground", "reporter_other": null, "equip_type_motorvehicle": null, "activity_installation": null, "activity_other_writein": null, "activity_repairreplace": null, "reporter_electrician": null, "equip_location_othertrack": null, "shiftduringevent_assignedshift": "Y", "weather_wind": null, "weather_clear": null, "lightvisibility_workarea": null, "equip_rules_roadwayworker": null, "reporter_other_writein": null, "equip_type_crane": null, "reporter_plumber": null, "rptrexperience_railroad": "20", "equip_type_ontrackequipment": null, "weather_snow": null, "activity_inspection": "Y", "activity_construction": null, "prt_send": null, "equip_location_other_writein": null, "reporter_laborer": null, "reporter_foreman": null, "lightvisibility_reducedvis": null, "equip_location_adjacenttrack": null, "lightvisibility_reducedvis_ft": null, "shiftduringevent_emergencyduty": null, "shiftduringevent_other": null, "equip_type_portablehandtools": null, "equip_rules_autotrainstop": null, "equip_rules_otherthanmain": null, "weather_fog": null, "equip_rules_other_writein": null, "weather_hazesmoke": null, "equip_type_offtrackequipment": null, "equip_rules_autocabsignal": null, "reporter_trainee": null, "equip_type_other": null, "equip_location_publicroadway": null, "reporter_signalman": null, "weather_ice": null, "weather_rain": null, "activity_blockjackrerail": null, "reporter_mechanic": null, "equip_rules_directtraffic": null, "rptrlocation_box1": "Yard", "equip_oprules_other_writein": "N/A", "reporter_signalmaintainer": null, "rptrexperience_craft": "20", "shiftduringevent_overtimeduty": null, "describeevent_narrative": "while taking measurements on switches at West Side Yard, I had signaled for my coworker to clear, which he did for a train on track x. After making sure he cleared up I saw a train approaching on track y which comes around a bend into the yard. I hurried off the rails and next to my coworker in the clear. The train came to a stop, the engineer opened his window, said something to us which we couldn't hear, closed his window and proceeded into the yard. We continued and completed our assignment.\nwhile taking measurements on switches at West Side Yard, I had signaled for my coworker to clear, which he did for a train on track x. After making sure he cleared up I saw a train approaching on track y which comes around a bend into the yard. I hurried off the rails and next to my coworker in the clear. The train came to a stop, the engineer opened his window, said something to us which we couldn't hear, closed his window and proceeded into the yard. We continued and completed our assignment.\nwhile taking measurements on switches at West Side Yard, I had signaled for my coworker to clear, which he did for a train on track x. After making sure he cleared up I saw a train approaching on track y which comes around a bend into the yard. I hurried off the rails and next to my coworker in the clear. The train came to a stop, the engineer opened his window, said something to us which we couldn't hear, closed his window and proceeded into the yard. We continued and completed our assignment.\nwhile taking measurements on switches at West Side Yard, I had signaled for my coworker to clear, which he did for a train on track x. After making sure he cleared up I saw a train approaching on track y which comes around a bend into the yard. I hurried off the rails and next to my coworker in the clear. The train came to a stop, the engineer opened his window, said something to us which we couldn't hear, closed his window and proceeded into the yard. We continued and completed our assignment.\nwhile taking measurements on switches at West Side Yard, I had signaled for my coworker to clear, which he did for a train on track x. After making sure he cleared up I saw a train approaching on track y which comes around a bend into the yard. I hurried off the rails and next to my coworker in the clear. The train came to a stop, the engineer opened his window, said something to us which we couldn't hear, closed his window and proceeded into the yard. We continued and completed our assignment.\n***** OVERFLOW TEXT *****\nEquip_OpRules_Other_writein: ['N/A']\n\nType_Event_Situation: ['near miss']\n\n", "reporter_technician": null, "activity_scheduledmaint": null, "equip_location_other": null, "activity_opvehicleequipment": null, "reporter_lineman": null, "equip_rules_interlocking": null, "workgroupsize": "2", "reporter_box1": null, "activity_other": null, "equip_rules_trackwarrant": null, "equip_rules_darkterritory": null, "log_id": "ERS_H 2015-07-16 10:06:55.159912", "reporter_machineoperator": null, "equip_location_yard": "Y", "weather_other_writein": "in tunnel", "weather_other": "Y", "rptrlocation_other_writein": null, "equip_location_shop": null, "equip_oprules": "Other", "weather_hail": null, "equip_rules_campcarprotection": null, "reporter_tracksupervisor": null, "activity_briefings": "Y", "equip_rules_yardlimits": "Y", "activity_testing": null, "activity_documentation": null, "reporter_craneoperator": null, "reporter_carpenter": null, "shiftduringevent_hoursinto": "1", "reporter_cdlvehicleoperator": null, "shiftduringevent_other_writein": null, "equip_rules_positivetrain": null, "weather_thunderstormlightning": null, "equip_rules_autoblocksignal": null, "equip_rules_other": null, "lightvisibility_light": null, "equip_type_other_writein": null, "reporter_signalinspectortester": "Y", "equip_rules_centralizedtraffic": null}
{"equip_location_maintrack": null, "rptrlocation": "Adjacent to track / on ground", "reporter_other": null, "equip_type_motorvehicle": null, "activity_installation": null, "activity_other_writein": null, "activity_repairreplace": null, "reporter_electrician": null, "equip_location_othertrack": null, "shiftduringevent_assignedshift": "Y", "weather_wind": null, "weather_clear": null, "lightvisibility_workarea": "Off", "equip_rules_roadwayworker": null, "reporter_other_writein": null, "equip_type_crane": null, "reporter_plumber": null, "rptrexperience_railroad": "19", "equip_type_ontrackequipment": null, "weather_snow": null, "activity_inspection": "Y", "activity_construction": null, "prt_send": null, "equip_location_other_writein": null, "reporter_laborer": null, "reporter_foreman": null, "lightvisibility_reducedvis": null, "equip_location_adjacenttrack": null, "lightvisibility_reducedvis_ft": null, "shiftduringevent_emergencyduty": null, "shiftduringevent_other": null, "equip_type_portablehandtools": null, "equip_rules_autotrainstop": null, "equip_rules_otherthanmain": null, "weather_fog": null, "equip_rules_other_writein": null, "weather_hazesmoke": null, "equip_type_offtrackequipment": null, "equip_rules_autocabsignal": null, "reporter_trainee": null, "equip_type_other": null, "equip_location_publicroadway": null, "reporter_signalman": null, "weather_ice": null, "weather_rain": null, "activity_blockjackrerail": null, "reporter_mechanic": null, "equip_rules_directtraffic": null, "rptrlocation_box1": "Yard", "equip_oprules_other_writein": "NA", "reporter_signalmaintainer": null, "rptrexperience_craft": "19", "shiftduringevent_overtimeduty": null, "describeevent_narrative": "Hopson was the watchman for Savoye he cleared Savoye for a westbound train on track X. Savoye thought that sole was clearing him for two westbound trains on X and Y track . Savoye cleared all tracks . Hopson did not see the westbound train on Y track until moments later . Hopson had to move hastily to avoid being struck by the westbound train on Y track.\n***** OVERFLOW TEXT *****\nEquip_OpRules_Other_writein: ['NA']\n\nType_Event_Situation: ['Near Miss']\n\n", "reporter_technician": null, "activity_scheduledmaint": null, "equip_location_other": null, "activity_opvehicleequipment": null, "reporter_lineman": null, "equip_rules_interlocking": null, "workgroupsize": "2", "reporter_box1": null, "activity_other": null, "equip_rules_trackwarrant": null, "equip_rules_darkterritory": null, "log_id": "ERS_H 2015-07-16 09:58:39.204733", "reporter_machineoperator": null, "equip_location_yard": "Y", "weather_other_writein": "In tunnel", "weather_other": "Y", "rptrlocation_other_writein": null, "equip_location_shop": null, "equip_oprules": "Other", "weather_hail": null, "equip_rules_campcarprotection": null, "reporter_tracksupervisor": null, "activity_briefings": "Y", "equip_rules_yardlimits": "Y", "activity_testing": null, "activity_documentation": null, "reporter_craneoperator": null, "reporter_carpenter": null, "shiftduringevent_hoursinto": "1", "reporter_cdlvehicleoperator": null, "shiftduringevent_other_writein": null, "equip_rules_positivetrain": null, "weather_thunderstormlightning": null, "equip_rules_autoblocksignal": null, "equip_rules_other": null, "lightvisibility_light": null, "equip_type_other_writein": null, "reporter_signalinspectortester": "Y", "equip_rules_centralizedtraffic": null}
