{"equip_freight_loads": "5", "equip_location_maintrack": null, "rptrlocation": "Other", "reporter_other": "Y", "activity_installation": null, "equip_oprules_bluesignal": "N", "activity_other_writein": "fun", "activity_repairreplace": "Y", "equip_freight_length": "354", "reporter_electrician": "Y", "equip_location_repairfacility": null, "shiftduringevent_assignedshift": null, "weather_clear": null, "lightvisibility_workarea": "Medium", "qual_passengercarinspection": "Y", "qual_airbrakeinspections": null, "reporter_other_writein": "kids", "equip_loco_positiontrain": "lasiurfg", "reporter_manager": null, "rptrexperience_railroad": "5", "equip_status_releasedserv": "Y", "weather_snow": null, "equip_status_maintdeferred": null, "prt_send": null, "equip_location_passengerst": null, "equip_loco_makemodel": "567654", "equip_location_other_writein": "home", "shiftduringevent_hoursinto": "1", "reporter_foreman": null, "lightvisibility_reducedvis": null, "lightvisibility_reducedvis_ft": null, "shiftduringevent_emergencyduty": null, "shiftduringevent_other": "Y", "qual_freightcarinspection": null, "equip_status_reqcorrectdoc": "N", "weather_fog": null, "weather_hazesmoke": null, "reporter_trainee": null, "weather_ice": null, "weather_rain": null, "activity_blockjackrerail": null, "weather_wind": null, "equip_status_recordscomp": "Y", "rptrlocation_box1": "Other Track", "equip_oprules_other_writein": "fun", "qual_other": "Y", "equip_location_industry": null, "equip_status_movingrepair": "N", "rptrexperience_craft": "1", "qual_conductorcertification": null, "qual_rearendmarkereot": null, "shiftduringevent_overtimeduty": null, "equip_loco_remote": "N", "activity_scheduledmaint": null, "equip_location_other": "Y", "describeevent_narrative": "After [Train A] had just left the yard,  engineer and I [the conductor] had walked out to [Track X] in [Yard] to fuel one of the trains on our Drill Slip. The Drill Slip was given to us by the [Yard Foreman] as the list of trains that had to be fueled by us as part of assignment. The equipment to be fueled was [Train B], a 7 car train that had a scheduled yard arrival of [late in the evening]. As we walked along the north side of [Track X], we both observed that there was no BLUE FLAG on the east end of the track, I dropped the derail on the east end of the track, checked and double checked that there were no ground hoses or cables attached to the east end/cab car and got on the east end of the train while the engineer walked to the west end. I walked through the east two cars to take off the hand brakes and gave engineer permission to proceed west. As I walk back into the west end of the cab car as the train had started moving, I heard a voice from outside the train saying '..hey, wait, wait' or something to that effect. Using my portable radio, I told the engineer to stop the train. I got out of the train and discovered that a [Yard] Mechanical employee was at the ground hose stand trying to shut the air off. I observed that he now had a BLUE FLAG but no derail on the east end of our track and that he had attached the ground hose to our train, which he had done after we had taken control of the train and were setting up for movement west. I asked him what was he doing and he said he didn't realize that we were taking the train up for fuel. The engineer confirmed that there was no BLUE FLAG on the west end of train. The [Yard Foreman] was notified of the situation.\n***** OVERFLOW TEXT *****\nEquip_Type_InvolvedCarKind: ['blue']\n\nEquip_OpRules_Other_writein: ['fun']\n\nType_Event_Situation: ['instructions not followed']\n\nEquip_Loco_MakeModel: ['567654']\n\n", "activity_opvehicleequipment": null, "qual_bluesignalprotection": null, "equip_freight_empties": "1", "equip_passenger_cars": "6", "reporter_laborer": "Y", "reporter_carman": null, "activity_other": "Y", "activity_briefings": null, "log_id": "ERS_G 2015-04-27 10:55:36.538025", "qual_locoengineercertification": null, "activity_inspection": "Y", "equip_location_yard": "Y", "weather_other_writein": "nice and sunny", "weather_other": "Y", "equip_oprules": "Other", "equip_type_involvedcarkind": "blue", "equip_passenger_serv": "2", "weather_hail": null, "equip_passenger_cab": "N", "rptrlocation_other_writein": "home", "reporter_hostlerinside": null, "qual_other_writein": "cartoon watcher", "equip_freight_tons": "163", "qual_locomotiveinspection": null, "qual_fraglazing": "Y", "activity_testing": null, "activity_documentation": null, "equip_type": "Other", "shiftduringevent_other_writein": "overtime", "reporter_pipefitter": null, "equip_loco_dist": "Y", "equip_loco_headend": "5", "reporter_machinist": null, "qual_safetyappliances": null, "workgroupsize": "25", "lightvisibility_light": "Dusk", "equip_type_other_writein": "green", "reporter_boilermaker": null, "weather_thunderstormlightning": null}
{"equip_freight_loads": "5", "equip_location_maintrack": null, "rptrlocation": "Other", "reporter_other": "Y", "activity_installation": null, "equip_oprules_bluesignal": "N", "activity_other_writein": "fun", "activity_repairreplace": "Y", "equip_freight_length": "354", "reporter_electrician": "Y", "equip_location_repairfacility": null, "shiftduringevent_assignedshift": null, "weather_clear": null, "lightvisibility_workarea": "Medium", "qual_passengercarinspection": "Y", "qual_airbrakeinspections": null, "reporter_other_writein": "kids", "equip_loco_positiontrain": "lasiurfg", "reporter_manager": null, "rptrexperience_railroad": "5", "equip_status_releasedserv": "Y", "weather_snow": null, "equip_status_maintdeferred": null, "prt_send": null, "equip_location_passengerst": null, "equip_loco_makemodel": "567654", "equip_location_other_writein": "home", "shiftduringevent_hoursinto": "1", "reporter_foreman": null, "lightvisibility_reducedvis": null, "lightvisibility_reducedvis_ft": null, "shiftduringevent_emergencyduty": null, "shiftduringevent_other": "Y", "qual_freightcarinspection": null, "equip_status_reqcorrectdoc": "N", "weather_fog": null, "weather_hazesmoke": null, "reporter_trainee": null, "weather_ice": null, "weather_rain": null, "activity_blockjackrerail": null, "weather_wind": null, "equip_status_recordscomp": "Y", "rptrlocation_box1": "Other Track", "equip_oprules_other_writein": "fun", "qual_other": "Y", "equip_location_industry": null, "equip_status_movingrepair": "N", "rptrexperience_craft": "1", "qual_conductorcertification": null, "qual_rearendmarkereot": null, "shiftduringevent_overtimeduty": null, "equip_loco_remote": "N", "activity_scheduledmaint": null, "equip_location_other": "Y", "describeevent_narrative": "After [Train A] had just left the yard,  engineer and I [the conductor] had walked out to [Track X] in [Yard] to fuel one of the trains on our Drill Slip. The Drill Slip was given to us by the [Yard Foreman] as the list of trains that had to be fueled by us as part of assignment. The equipment to be fueled was [Train B], a 7 car train that had a scheduled yard arrival of [late in the evening]. As we walked along the north side of [Track X], we both observed that there was no BLUE FLAG on the east end of the track, I dropped the derail on the east end of the track, checked and double checked that there were no ground hoses or cables attached to the east end/cab car and got on the east end of the train while the engineer walked to the west end. I walked through the east two cars to take off the hand brakes and gave engineer permission to proceed west. As I walk back into the west end of the cab car as the train had started moving, I heard a voice from outside the train saying '..hey, wait, wait' or something to that effect. Using my portable radio, I told the engineer to stop the train. I got out of the train and discovered that a [Yard] Mechanical employee was at the ground hose stand trying to shut the air off. I observed that he now had a BLUE FLAG but no derail on the east end of our track and that he had attached the ground hose to our train, which he had done after we had taken control of the train and were setting up for movement west. I asked him what was he doing and he said he didn't realize that we were taking the train up for fuel. The engineer confirmed that there was no BLUE FLAG on the west end of train. The [Yard Foreman] was notified of the situation.\n***** OVERFLOW TEXT *****\nEquip_Type_InvolvedCarKind: ['blue']\n\nEquip_OpRules_Other_writein: ['fun']\n\nType_Event_Situation: ['instructions not followed']\n\nEquip_Loco_MakeModel: ['567654']\n\n", "activity_opvehicleequipment": null, "qual_bluesignalprotection": null, "equip_freight_empties": "1", "equip_passenger_cars": "6", "reporter_laborer": "Y", "reporter_carman": null, "activity_other": "Y", "activity_briefings": null, "log_id": "ERS_G 2015-05-03 15:27:04.822686", "qual_locoengineercertification": null, "activity_inspection": "Y", "equip_location_yard": "Y", "weather_other_writein": "nice and sunny", "weather_other": "Y", "equip_oprules": "Other", "equip_type_involvedcarkind": "blue", "equip_passenger_serv": "2", "weather_hail": null, "equip_passenger_cab": "N", "rptrlocation_other_writein": "home", "reporter_hostlerinside": null, "qual_other_writein": "cartoon watcher", "equip_freight_tons": "163", "qual_locomotiveinspection": null, "qual_fraglazing": "Y", "activity_testing": null, "activity_documentation": null, "equip_type": "Other", "shiftduringevent_other_writein": "overtime", "reporter_pipefitter": null, "equip_loco_dist": "Y", "equip_loco_headend": "5", "reporter_machinist": null, "qual_safetyappliances": null, "workgroupsize": "25", "lightvisibility_light": "Dusk", "equip_type_other_writein": "green", "reporter_boilermaker": null, "weather_thunderstormlightning": null}
{"equip_freight_loads": "5", "equip_location_maintrack": null, "rptrlocation": "Office / Crew Facility", "reporter_other": "Y", "activity_installation": null, "equip_oprules_bluesignal": "N", "activity_other_writein": null, "activity_repairreplace": null, "equip_freight_length": "50", "reporter_electrician": null, "equip_location_repairfacility": null, "shiftduringevent_assignedshift": null, "weather_clear": null, "lightvisibility_workarea": "Low", "qual_passengercarinspection": "Y", "qual_airbrakeinspections": null, "reporter_other_writein": "teachers", "equip_loco_positiontrain": "in bed", "reporter_manager": "Y", "rptrexperience_railroad": "12", "equip_status_releasedserv": "N", "weather_snow": null, "equip_status_maintdeferred": "N", "prt_send": null, "equip_location_passengerst": null, "equip_loco_makemodel": "k78", "equip_location_other_writein": "facilityes", "shiftduringevent_hoursinto": "6", "reporter_foreman": null, "lightvisibility_reducedvis": "Y", "lightvisibility_reducedvis_ft": "8", "shiftduringevent_emergencyduty": "Y", "shiftduringevent_other": "Y", "qual_freightcarinspection": null, "equip_status_reqcorrectdoc": "N", "weather_fog": "Y", "weather_hazesmoke": "Y", "reporter_trainee": null, "weather_ice": null, "weather_rain": "Y", "activity_blockjackrerail": null, "weather_wind": null, "equip_status_recordscomp": "N", "rptrlocation_box1": "Shop", "equip_oprules_other_writein": null, "qual_other": null, "equip_location_industry": "Y", "equip_status_movingrepair": "N", "rptrexperience_craft": "6", "qual_conductorcertification": null, "qual_rearendmarkereot": null, "shiftduringevent_overtimeduty": "Y", "equip_loco_remote": "N", "activity_scheduledmaint": null, "equip_location_other": "Y", "describeevent_narrative": "I was called to take a set of equipment (Engine, Coach & Control Car) from Station A to Station B.  Earlier in the day, the equipment was involved in an incident in which the control car received extensive damage to the Air Brake System and rendered it inoperable and therefore had to be cut out.  Station A does not have the facilities to make this kind of repair and therefore the equipment had to be moved to Station B.  When  Mechanical released the train to us, they told the Train Dispatcher we were cleared to move the equipment at 20 mph.  The Train Dispatcher issued us a Form D stating such. The equipment was moved from Station A to Station B to the best of my ability at or close to 20 mph throughout the trip.  Upon further review of the rules with my Road Foreman, it was determined that the car placement was wrong and the Control Car should have been switched out and placed in the middle.  It was also determined that the speed for this move was to be half the Maximum Authorized Speed not to exceed 20 mph.  This caused me to commit a decertifiable offense because I did 20 mph between XX Interlocking & MP YY.  The Maximum Authorized Speed is 20 but due to the restrictions on this equipment, the speed in this location was 10.  What confused me about this move is that it was a move of Passenger Equipment but not a Passenger Train.  For the most part I followed the Passenger rule for this move, with the exception of the speed limit for the restriction.  During the job briefing after discussion of the rule, we determined that the Conductor was to be positioned near the Handbrake which he was while we were enroute.  The problem was that this is a rule for this type of situation happening enroute and we left Station A like this.  I feel the configuration of [the air brake rule book] caused this because of the fact that the rules that applied to this move weren't in one location but several throughout the book.  In the future for these types of moves, I think a supervisor should be informed of these special moves which don't happen often and he should contact the crew to make sure that they have an understanding as to what restrictions pertain to these types of moves which don't happen often.  I tried to contact 3 supervisors for clarifications and when I did reach one on my final attempt, you can hear I had awaken him and I did not want to be a bother to him.  \n***** OVERFLOW TEXT *****\nEquip_Type_InvolvedCarKind: ['pink']\n\nType_Event_Situation: ['shoving']\n\nEquip_Loco_MakeModel: ['k78']\n\n", "activity_opvehicleequipment": "Y", "qual_bluesignalprotection": "Y", "equip_freight_empties": "4", "equip_passenger_cars": "6", "reporter_laborer": null, "reporter_carman": "Y", "activity_other": null, "activity_briefings": null, "log_id": "ERS_G 2015-04-27 10:48:55.614505", "qual_locoengineercertification": "Y", "activity_inspection": null, "equip_location_yard": "Y", "weather_other_writein": null, "weather_other": null, "equip_oprules": "NORAC", "equip_type_involvedcarkind": "pink", "equip_passenger_serv": "5", "weather_hail": null, "equip_passenger_cab": "N", "rptrlocation_other_writein": null, "reporter_hostlerinside": "Y", "qual_other_writein": null, "equip_freight_tons": "5", "qual_locomotiveinspection": null, "qual_fraglazing": "Y", "activity_testing": "Y", "activity_documentation": "Y", "equip_type": "Freight", "shiftduringevent_other_writein": null, "reporter_pipefitter": null, "equip_loco_dist": "N", "equip_loco_headend": "5", "reporter_machinist": null, "qual_safetyappliances": "Y", "workgroupsize": "6", "lightvisibility_light": "Night", "equip_type_other_writein": null, "reporter_boilermaker": null, "weather_thunderstormlightning": null}
{"equip_freight_loads": "5", "equip_location_maintrack": null, "rptrlocation": "Office / Crew Facility", "reporter_other": "Y", "activity_installation": null, "equip_oprules_bluesignal": "N", "activity_other_writein": null, "activity_repairreplace": null, "equip_freight_length": "50", "reporter_electrician": null, "equip_location_repairfacility": null, "shiftduringevent_assignedshift": null, "weather_clear": null, "lightvisibility_workarea": "Low", "qual_passengercarinspection": "Y", "qual_airbrakeinspections": null, "reporter_other_writein": "teachers", "equip_loco_positiontrain": "in bed", "reporter_manager": "Y", "rptrexperience_railroad": "12", "equip_status_releasedserv": "N", "weather_snow": null, "equip_status_maintdeferred": "N", "prt_send": null, "equip_location_passengerst": null, "equip_loco_makemodel": "k78", "equip_location_other_writein": "facilityes", "shiftduringevent_hoursinto": "6", "reporter_foreman": null, "lightvisibility_reducedvis": "Y", "lightvisibility_reducedvis_ft": "8", "shiftduringevent_emergencyduty": "Y", "shiftduringevent_other": "Y", "qual_freightcarinspection": null, "equip_status_reqcorrectdoc": "N", "weather_fog": "Y", "weather_hazesmoke": "Y", "reporter_trainee": null, "weather_ice": null, "weather_rain": "Y", "activity_blockjackrerail": null, "weather_wind": null, "equip_status_recordscomp": "N", "rptrlocation_box1": "Shop", "equip_oprules_other_writein": null, "qual_other": null, "equip_location_industry": "Y", "equip_status_movingrepair": "N", "rptrexperience_craft": "6", "qual_conductorcertification": null, "qual_rearendmarkereot": null, "shiftduringevent_overtimeduty": "Y", "equip_loco_remote": "N", "activity_scheduledmaint": null, "equip_location_other": "Y", "describeevent_narrative": "I was called to take a set of equipment (Engine, Coach & Control Car) from Station A to Station B.  Earlier in the day, the equipment was involved in an incident in which the control car received extensive damage to the Air Brake System and rendered it inoperable and therefore had to be cut out.  Station A does not have the facilities to make this kind of repair and therefore the equipment had to be moved to Station B.  When  Mechanical released the train to us, they told the Train Dispatcher we were cleared to move the equipment at 20 mph.  The Train Dispatcher issued us a Form D stating such. The equipment was moved from Station A to Station B to the best of my ability at or close to 20 mph throughout the trip.  Upon further review of the rules with my Road Foreman, it was determined that the car placement was wrong and the Control Car should have been switched out and placed in the middle.  It was also determined that the speed for this move was to be half the Maximum Authorized Speed not to exceed 20 mph.  This caused me to commit a decertifiable offense because I did 20 mph between XX Interlocking & MP YY.  The Maximum Authorized Speed is 20 but due to the restrictions on this equipment, the speed in this location was 10.  What confused me about this move is that it was a move of Passenger Equipment but not a Passenger Train.  For the most part I followed the Passenger rule for this move, with the exception of the speed limit for the restriction.  During the job briefing after discussion of the rule, we determined that the Conductor was to be positioned near the Handbrake which he was while we were enroute.  The problem was that this is a rule for this type of situation happening enroute and we left Station A like this.  I feel the configuration of [the air brake rule book] caused this because of the fact that the rules that applied to this move weren't in one location but several throughout the book.  In the future for these types of moves, I think a supervisor should be informed of these special moves which don't happen often and he should contact the crew to make sure that they have an understanding as to what restrictions pertain to these types of moves which don't happen often.  I tried to contact 3 supervisors for clarifications and when I did reach one on my final attempt, you can hear I had awaken him and I did not want to be a bother to him.  \n***** OVERFLOW TEXT *****\nEquip_Type_InvolvedCarKind: ['pink']\n\nType_Event_Situation: ['shoving']\n\nEquip_Loco_MakeModel: ['k78']\n\n", "activity_opvehicleequipment": "Y", "qual_bluesignalprotection": "Y", "equip_freight_empties": "4", "equip_passenger_cars": "6", "reporter_laborer": null, "reporter_carman": "Y", "activity_other": null, "activity_briefings": null, "log_id": "ERS_G 2015-05-03 15:27:03.096815", "qual_locoengineercertification": "Y", "activity_inspection": null, "equip_location_yard": "Y", "weather_other_writein": null, "weather_other": null, "equip_oprules": "NORAC", "equip_type_involvedcarkind": "pink", "equip_passenger_serv": "5", "weather_hail": null, "equip_passenger_cab": "N", "rptrlocation_other_writein": null, "reporter_hostlerinside": "Y", "qual_other_writein": null, "equip_freight_tons": "5", "qual_locomotiveinspection": null, "qual_fraglazing": "Y", "activity_testing": "Y", "activity_documentation": "Y", "equip_type": "Freight", "shiftduringevent_other_writein": null, "reporter_pipefitter": null, "equip_loco_dist": "N", "equip_loco_headend": "5", "reporter_machinist": null, "qual_safetyappliances": "Y", "workgroupsize": "6", "lightvisibility_light": "Night", "equip_type_other_writein": null, "reporter_boilermaker": null, "weather_thunderstormlightning": null}
{"equip_freight_loads": "2", "equip_location_maintrack": "Y", "rptrlocation": "Adjacent to track / on ground", "reporter_other": null, "activity_installation": null, "equip_oprules_bluesignal": "Y", "activity_other_writein": "sleeping", "activity_repairreplace": null, "equip_freight_length": "25", "reporter_electrician": "Y", "equip_location_repairfacility": "Y", "shiftduringevent_assignedshift": "Y", "weather_clear": "Y", "lightvisibility_workarea": "Medium", "qual_passengercarinspection": null, "qual_airbrakeinspections": "Y", "reporter_other_writein": "oiu", "equip_loco_positiontrain": "sitting", "reporter_manager": null, "rptrexperience_railroad": "10", "equip_status_releasedserv": "Y", "weather_snow": null, "equip_status_maintdeferred": "Y", "prt_send": null, "equip_location_passengerst": "Y", "equip_loco_makemodel": "ks9567", "equip_location_other_writein": null, "shiftduringevent_hoursinto": "6", "reporter_foreman": null, "lightvisibility_reducedvis": "Y", "lightvisibility_reducedvis_ft": "100", "shiftduringevent_emergencyduty": "Y", "shiftduringevent_other": null, "qual_freightcarinspection": "Y", "equip_status_reqcorrectdoc": "Y", "weather_fog": null, "weather_hazesmoke": null, "reporter_trainee": null, "weather_ice": null, "weather_rain": "Y", "activity_blockjackrerail": "Y", "weather_wind": "Y", "equip_status_recordscomp": "Y", "rptrlocation_box1": "Yard", "equip_oprules_other_writein": null, "qual_other": null, "equip_location_industry": null, "equip_status_movingrepair": "Y", "rptrexperience_craft": "5", "qual_conductorcertification": "Y", "qual_rearendmarkereot": null, "shiftduringevent_overtimeduty": null, "equip_loco_remote": "Y", "activity_scheduledmaint": "Y", "equip_location_other": null, "describeevent_narrative": "While shoving from A lead to B lead in eastward direction, eastend truck derailed.\n\nWith many yrs of railroading mostly in non-passenger yard service-it is my opinion that:\n\nThis empty car walked off the track due to excessive snow and ice buildup.\n\nWeather conditions for this day: snow in amounts of 12'-16' had fallen in the last 12 hours. \n\nAuthorities declared state of emergency due to blizzard conditions.\n\n\n***** OVERFLOW TEXT *****\nEquip_Type_InvolvedCarKind: ['small']\n\nType_Event_Situation: ['derailment']\n\nEquip_Loco_MakeModel: ['ks9567']\n\n", "activity_opvehicleequipment": "Y", "qual_bluesignalprotection": null, "equip_freight_empties": "1", "equip_passenger_cars": "4", "reporter_laborer": null, "reporter_carman": null, "activity_other": "Y", "activity_briefings": null, "log_id": "ERS_G 2015-04-27 10:43:21.093997", "qual_locoengineercertification": null, "activity_inspection": "Y", "equip_location_yard": null, "weather_other_writein": null, "weather_other": null, "equip_oprules": "GCOR", "equip_type_involvedcarkind": "small", "equip_passenger_serv": "3", "weather_hail": "Y", "equip_passenger_cab": "Y", "rptrlocation_other_writein": null, "reporter_hostlerinside": "Y", "qual_other_writein": null, "equip_freight_tons": "5", "qual_locomotiveinspection": "Y", "qual_fraglazing": null, "activity_testing": null, "activity_documentation": null, "equip_type": "Passenger / Commuter", "shiftduringevent_other_writein": null, "reporter_pipefitter": "Y", "equip_loco_dist": "Y", "equip_loco_headend": "5", "reporter_machinist": "Y", "qual_safetyappliances": "Y", "workgroupsize": "5", "lightvisibility_light": "Dawn", "equip_type_other_writein": null, "reporter_boilermaker": "Y", "weather_thunderstormlightning": "Y"}
{"equip_freight_loads": "2", "equip_location_maintrack": "Y", "rptrlocation": "Adjacent to track / on ground", "reporter_other": null, "activity_installation": null, "equip_oprules_bluesignal": "Y", "activity_other_writein": "sleeping", "activity_repairreplace": null, "equip_freight_length": "25", "reporter_electrician": "Y", "equip_location_repairfacility": "Y", "shiftduringevent_assignedshift": "Y", "weather_clear": "Y", "lightvisibility_workarea": "Medium", "qual_passengercarinspection": null, "qual_airbrakeinspections": "Y", "reporter_other_writein": "oiu", "equip_loco_positiontrain": "sitting", "reporter_manager": null, "rptrexperience_railroad": "10", "equip_status_releasedserv": "Y", "weather_snow": null, "equip_status_maintdeferred": "Y", "prt_send": null, "equip_location_passengerst": "Y", "equip_loco_makemodel": "ks9567", "equip_location_other_writein": null, "shiftduringevent_hoursinto": "6", "reporter_foreman": null, "lightvisibility_reducedvis": "Y", "lightvisibility_reducedvis_ft": "100", "shiftduringevent_emergencyduty": "Y", "shiftduringevent_other": null, "qual_freightcarinspection": "Y", "equip_status_reqcorrectdoc": "Y", "weather_fog": null, "weather_hazesmoke": null, "reporter_trainee": null, "weather_ice": null, "weather_rain": "Y", "activity_blockjackrerail": "Y", "weather_wind": "Y", "equip_status_recordscomp": "Y", "rptrlocation_box1": "Yard", "equip_oprules_other_writein": null, "qual_other": null, "equip_location_industry": null, "equip_status_movingrepair": "Y", "rptrexperience_craft": "5", "qual_conductorcertification": "Y", "qual_rearendmarkereot": null, "shiftduringevent_overtimeduty": null, "equip_loco_remote": "Y", "activity_scheduledmaint": "Y", "equip_location_other": null, "describeevent_narrative": "While shoving from A lead to B lead in eastward direction, eastend truck derailed.\n\nWith many yrs of railroading mostly in non-passenger yard service-it is my opinion that:\n\nThis empty car walked off the track due to excessive snow and ice buildup.\n\nWeather conditions for this day: snow in amounts of 12'-16' had fallen in the last 12 hours. \n\nAuthorities declared state of emergency due to blizzard conditions.\n\n\n***** OVERFLOW TEXT *****\nEquip_Type_InvolvedCarKind: ['small']\n\nType_Event_Situation: ['derailment']\n\nEquip_Loco_MakeModel: ['ks9567']\n\n", "activity_opvehicleequipment": "Y", "qual_bluesignalprotection": null, "equip_freight_empties": "1", "equip_passenger_cars": "4", "reporter_laborer": null, "reporter_carman": null, "activity_other": "Y", "activity_briefings": null, "log_id": "ERS_G 2015-05-03 15:27:03.490033", "qual_locoengineercertification": null, "activity_inspection": "Y", "equip_location_yard": null, "weather_other_writein": null, "weather_other": null, "equip_oprules": "GCOR", "equip_type_involvedcarkind": "small", "equip_passenger_serv": "3", "weather_hail": "Y", "equip_passenger_cab": "Y", "rptrlocation_other_writein": null, "reporter_hostlerinside": "Y", "qual_other_writein": null, "equip_freight_tons": "5", "qual_locomotiveinspection": "Y", "qual_fraglazing": null, "activity_testing": null, "activity_documentation": null, "equip_type": "Passenger / Commuter", "shiftduringevent_other_writein": null, "reporter_pipefitter": "Y", "equip_loco_dist": "Y", "equip_loco_headend": "5", "reporter_machinist": "Y", "qual_safetyappliances": "Y", "workgroupsize": "5", "lightvisibility_light": "Dawn", "equip_type_other_writein": null, "reporter_boilermaker": "Y", "weather_thunderstormlightning": "Y"}
{"equip_freight_loads": "455", "equip_location_maintrack": "Y", "rptrlocation": "Other", "reporter_other": "Y", "activity_installation": null, "equip_oprules_bluesignal": "Y", "activity_other_writein": null, "activity_repairreplace": null, "equip_freight_length": "477", "reporter_electrician": null, "equip_location_repairfacility": null, "shiftduringevent_assignedshift": "Y", "weather_clear": null, "lightvisibility_workarea": "High", "qual_passengercarinspection": null, "qual_airbrakeinspections": null, "reporter_other_writein": "test 3", "equip_loco_positiontrain": "hnfghgh", "reporter_manager": "Y", "rptrexperience_railroad": "34", "equip_status_releasedserv": "N", "weather_snow": null, "equip_status_maintdeferred": "Y", "prt_send": null, "equip_location_passengerst": "Y", "equip_loco_makemodel": "44", "equip_location_other_writein": "ghjghj", "shiftduringevent_hoursinto": "23", "reporter_foreman": "Y", "lightvisibility_reducedvis": "Y", "lightvisibility_reducedvis_ft": "44555", "shiftduringevent_emergencyduty": null, "shiftduringevent_other": "Y", "qual_freightcarinspection": "Y", "equip_status_reqcorrectdoc": "N", "weather_fog": "Y", "weather_hazesmoke": null, "reporter_trainee": "Y", "weather_ice": null, "weather_rain": "Y", "activity_blockjackrerail": null, "weather_wind": null, "equip_status_recordscomp": "Y", "rptrlocation_box1": "Shop", "equip_oprules_other_writein": null, "qual_other": "Y", "equip_location_industry": null, "equip_status_movingrepair": "Y", "rptrexperience_craft": "55", "qual_conductorcertification": null, "qual_rearendmarkereot": null, "shiftduringevent_overtimeduty": null, "equip_loco_remote": "N", "activity_scheduledmaint": null, "equip_location_other": "Y", "describeevent_narrative": "today was a very busy day. it is time to practice using this automated software tool to enter in test data.  this one will be exactly like anotherreport if you use the mechanical form.\n\ntoday was a very busy day. it is time to practice using this automated software tool to enter in test data.  this one will be exactly like anotherreport if you use the mechanical form.\ntoday was a very busy day. it is time to practice using this automated software tool to enter in test data.  this one will be exactly like anotherreport if you use the mechanical form.\ntoday was a very busy day. it is time to practice using this automated software tool to enter in test data.  this one will be exactly like anotherreport if you use the mechanical form.\ntoday was a very busy day. it is time to practice using this automated software tool to enter in test data.  this one will be exactly like anotherreport if you use the mechanical form.\ntoday was a very busy day. it is time to practice using this automated software tool to enter in test data.  this one will be exactly like anotherreport if you use the mechanical form.\n***** OVERFLOW TEXT *****\nEquip_Loco_MakeModel: ['44']\n\nEquip_Type_InvolvedCarKind: ['dfgjdfgh']\n\nType_Event_Situation: ['Today will be a great day']\n\n", "activity_opvehicleequipment": "Y", "qual_bluesignalprotection": "Y", "equip_freight_empties": "788", "equip_passenger_cars": "44", "reporter_laborer": "Y", "reporter_carman": "Y", "activity_other": null, "activity_briefings": "N", "log_id": "ERS_G 2014-04-20 15:19:41.528734", "qual_locoengineercertification": null, "activity_inspection": null, "equip_location_yard": "Y", "weather_other_writein": "asdf", "weather_other": "Y", "equip_oprules": "NORAC", "equip_type_involvedcarkind": "dfgjdfgh", "equip_passenger_serv": "66", "weather_hail": null, "equip_passenger_cab": null, "rptrlocation_other_writein": "asdf", "reporter_hostlerinside": null, "qual_other_writein": "test 90", "equip_freight_tons": "534", "qual_locomotiveinspection": null, "qual_fraglazing": "Y", "activity_testing": null, "activity_documentation": null, "equip_type": "Freight", "shiftduringevent_other_writein": "very busy", "reporter_pipefitter": null, "equip_loco_dist": "Y", "equip_loco_headend": "55", "reporter_machinist": null, "qual_safetyappliances": "Y", "workgroupsize": "80", "lightvisibility_light": "Night", "equip_type_other_writein": null, "reporter_boilermaker": null, "weather_thunderstormlightning": "Y"}
{"equip_freight_loads": "222", "equip_location_maintrack": null, "rptrlocation": "Office / Crew Facility", "reporter_other": null, "activity_installation": "Y", "equip_oprules_bluesignal": "Y", "activity_other_writein": null, "activity_repairreplace": null, "equip_freight_length": "4456", "reporter_electrician": null, "equip_location_repairfacility": null, "shiftduringevent_assignedshift": null, "weather_clear": null, "lightvisibility_workarea": "High", "qual_passengercarinspection": null, "qual_airbrakeinspections": "Y", "reporter_other_writein": null, "equip_loco_positiontrain": "7542", "reporter_manager": "Y", "rptrexperience_railroad": "85655", "equip_status_releasedserv": "N", "weather_snow": null, "equip_status_maintdeferred": "Y", "prt_send": null, "equip_location_passengerst": null, "equip_loco_makemodel": "68999", "equip_location_other_writein": null, "shiftduringevent_hoursinto": null, "reporter_foreman": null, "lightvisibility_reducedvis": "Y", "lightvisibility_reducedvis_ft": "45454", "shiftduringevent_emergencyduty": null, "shiftduringevent_other": null, "qual_freightcarinspection": null, "equip_status_reqcorrectdoc": "N", "weather_fog": null, "weather_hazesmoke": null, "reporter_trainee": null, "weather_ice": null, "weather_rain": null, "activity_blockjackrerail": null, "weather_wind": null, "equip_status_recordscomp": "Y", "rptrlocation_box1": "Shop", "equip_oprules_other_writein": null, "qual_other": null, "equip_location_industry": "Y", "equip_status_movingrepair": "Y", "rptrexperience_craft": "333", "qual_conductorcertification": null, "qual_rearendmarkereot": null, "shiftduringevent_overtimeduty": "Y", "equip_loco_remote": "N", "activity_scheduledmaint": null, "equip_location_other": null, "describeevent_narrative": "Lorem ipsum dolor sit amet, consetetur sadipscing elitr, sed diam nonumy eirmod tempor invidunt ut labore et dolore magna aliquyam erat, sed diam voluptua. At vero eos et accusam et justo duo dolores et ea rebum. Stet clita kasd gubergren, no sea takimata sanctus est Lorem ipsum dolor sit amet. Lorem ipsum dolor sit amet, consetetur sadipscing elitr,  sed diam nonumy eirmod tempor invidunt ut labore et dolore magna aliquyam erat, sed diam voluptua. At vero eos et accusam et justo duo dolores et ea rebum. Stet clita kasd gubergren, no sea takimata sanctus est Lorem ipsum dolor sit amet. Lorem ipsum dolor sit amet, consetetur sadipscing elitr,  sed diam nonumy eirmod tempor invidunt ut labore et dolore magna aliquyam erat, sed diam voluptua. At vero eos et accusam et justo duo dolores et ea rebum. Stet clita kasd gubergren, no sea takimata sanctus est Lorem ipsum dolor sit amet.\n \nDuis autem vel eum iriure dolor in hendrerit in vulputate velit esse molestie consequat, vel illum dolore eu feugiat nulla facilisis at vero eros et accumsan et iusto odio dignissim qui blandit praesent luptatum zzril delenit augue duis dolore te feugait nulla facilisi. Lorem ipsum dolor sit amet, consectetuer adipiscing elit, sed diam nonummy nibh euismod tincidunt ut laoreet dolore magna aliquam erat volutpat.\n \nUt wisi enim ad minim veniam, quis nostrud exerci tation ullamcorper suscipit lobortis nisl ut aliquip ex ea commodo consequat. Duis autem vel eum iriure dolor in hendrerit in vulputate velit esse molestie consequat, vel illum dolore eu feugiat nulla facilisis at vero eros et accumsan et iusto odio dignissim qui blandit praesent luptatum zzril delenit augue duis dolore te feugait nulla facilisi.\n \nNam liber tempor cum soluta nobis eleifend option congue nihil imperdiet doming id quod mazim placerat facer possim assum. Lorem ipsum dolor sit amet, consectetuer adipiscing elit, sed diam nonummy nibh euismod tincidunt ut laoreet dolore magna aliquam erat volutpat. Ut wisi enim ad minim veniam, quis nostrud exerci tation ullamcorper suscipit lobortis nisl ut aliquip ex ea commodo consequat.\n \nSpecial Characters pasted from Word\n\\e\\a\n:\n#\n/\n\\\n\n***** OVERFLOW TEXT *****\nEquip_Type_InvolvedCarKind: ['tyjdftj']\n\nType_Event_Situation: [\"getting ready for valentine's day in the sleeper car\"]\n\nEquip_Loco_MakeModel: ['68999']\n\n", "activity_opvehicleequipment": null, "qual_bluesignalprotection": null, "equip_freight_empties": "45", "equip_passenger_cars": "21", "reporter_laborer": null, "reporter_carman": null, "activity_other": null, "activity_briefings": "Y", "log_id": "ERS_G 2014-02-12 13:26:31.945080", "qual_locoengineercertification": null, "activity_inspection": null, "equip_location_yard": null, "weather_other_writein": null, "weather_other": null, "equip_oprules": "NORAC", "equip_type_involvedcarkind": "tyjdftj", "equip_passenger_serv": "12", "weather_hail": "Y", "equip_passenger_cab": "Y", "rptrlocation_other_writein": null, "reporter_hostlerinside": null, "qual_other_writein": null, "equip_freight_tons": "488", "qual_locomotiveinspection": null, "qual_fraglazing": null, "activity_testing": null, "activity_documentation": null, "equip_type": "Passenger / Commuter", "shiftduringevent_other_writein": null, "reporter_pipefitter": null, "equip_loco_dist": "Y", "equip_loco_headend": "66", "reporter_machinist": null, "qual_safetyappliances": null, "workgroupsize": "78", "lightvisibility_light": "Daylight", "equip_type_other_writein": null, "reporter_boilermaker": null, "weather_thunderstormlightning": null}
{"equip_freight_loads": "334", "equip_location_maintrack": "Y", "rptrlocation": "Office / Crew Facility", "reporter_other": null, "activity_installation": null, "equip_oprules_bluesignal": null, "activity_other_writein": null, "activity_repairreplace": null, "equip_freight_length": "53535", "reporter_electrician": null, "equip_location_repairfacility": null, "shiftduringevent_assignedshift": null, "weather_clear": null, "lightvisibility_workarea": "Medium", "qual_passengercarinspection": null, "qual_airbrakeinspections": null, "reporter_other_writein": null, "equip_loco_positiontrain": "435363456", "reporter_manager": null, "rptrexperience_railroad": "44", "equip_status_releasedserv": "Y", "weather_snow": null, "equip_status_maintdeferred": "Y", "prt_send": null, "equip_location_passengerst": null, "equip_loco_makemodel": "346346", "equip_location_other_writein": null, "shiftduringevent_hoursinto": null, "reporter_foreman": "Y", "lightvisibility_reducedvis": "Y", "lightvisibility_reducedvis_ft": "67856", "shiftduringevent_emergencyduty": null, "shiftduringevent_other": null, "qual_freightcarinspection": null, "equip_status_reqcorrectdoc": "N", "weather_fog": null, "weather_hazesmoke": null, "reporter_trainee": null, "weather_ice": null, "weather_rain": "Y", "activity_blockjackrerail": null, "weather_wind": "Y", "equip_status_recordscomp": "Y", "rptrlocation_box1": "Shop", "equip_oprules_other_writein": null, "qual_other": null, "equip_location_industry": null, "equip_status_movingrepair": "N", "rptrexperience_craft": "22", "qual_conductorcertification": null, "qual_rearendmarkereot": null, "shiftduringevent_overtimeduty": "Y", "equip_loco_remote": "Y", "activity_scheduledmaint": null, "equip_location_other": null, "describeevent_narrative": "LKJASDHFLKJASHDF\nLAKSJDFHLKJASDHF\nLAKSJDFHLKAJSDFH\nLKJASDHFLKJASDHF\nLKJASDHFLKJASHDF\n***** OVERFLOW TEXT *****\nEquip_Type_InvolvedCarKind: ['234523']\n\nType_Event_Situation: ['emergency !']\n\nEquip_Loco_MakeModel: ['346346']\n\n", "activity_opvehicleequipment": null, "qual_bluesignalprotection": "Y", "equip_freight_empties": "235", "equip_passenger_cars": "55", "reporter_laborer": null, "reporter_carman": null, "activity_other": null, "activity_briefings": null, "log_id": "ERS_G 2014-02-12 12:56:28.123472", "qual_locoengineercertification": null, "activity_inspection": null, "equip_location_yard": null, "weather_other_writein": null, "weather_other": null, "equip_oprules": "GCOR", "equip_type_involvedcarkind": "234523", "equip_passenger_serv": "23", "weather_hail": null, "equip_passenger_cab": null, "rptrlocation_other_writein": null, "reporter_hostlerinside": "Y", "qual_other_writein": null, "equip_freight_tons": "3434", "qual_locomotiveinspection": null, "qual_fraglazing": null, "activity_testing": null, "activity_documentation": null, "equip_type": "Passenger / Commuter", "shiftduringevent_other_writein": null, "reporter_pipefitter": null, "equip_loco_dist": "N", "equip_loco_headend": "24", "reporter_machinist": null, "qual_safetyappliances": "Y", "workgroupsize": null, "lightvisibility_light": "Night", "equip_type_other_writein": null, "reporter_boilermaker": null, "weather_thunderstormlightning": null}
{"equip_freight_loads": "553", "equip_location_maintrack": null, "rptrlocation": "On / under / between Motive Power", "reporter_other": null, "activity_installation": null, "equip_oprules_bluesignal": "Y", "activity_other_writein": null, "activity_repairreplace": null, "equip_freight_length": "89000", "reporter_electrician": null, "equip_location_repairfacility": null, "shiftduringevent_assignedshift": null, "weather_clear": null, "lightvisibility_workarea": "Low", "qual_passengercarinspection": null, "qual_airbrakeinspections": null, "reporter_other_writein": null, "equip_loco_positiontrain": "56777", "reporter_manager": null, "rptrexperience_railroad": "3567", "equip_status_releasedserv": "N", "weather_snow": null, "equip_status_maintdeferred": "Y", "prt_send": null, "equip_location_passengerst": null, "equip_loco_makemodel": "75555", "equip_location_other_writein": null, "shiftduringevent_hoursinto": null, "reporter_foreman": null, "lightvisibility_reducedvis": "Y", "lightvisibility_reducedvis_ft": "45677", "shiftduringevent_emergencyduty": "Y", "shiftduringevent_other": null, "qual_freightcarinspection": "Y", "equip_status_reqcorrectdoc": "N", "weather_fog": null, "weather_hazesmoke": "Y", "reporter_trainee": null, "weather_ice": "Y", "weather_rain": null, "activity_blockjackrerail": null, "weather_wind": null, "equip_status_recordscomp": "Y", "rptrlocation_box1": "Other Track", "equip_oprules_other_writein": null, "qual_other": null, "equip_location_industry": "Y", "equip_status_movingrepair": "Y", "rptrexperience_craft": "565", "qual_conductorcertification": null, "qual_rearendmarkereot": null, "shiftduringevent_overtimeduty": "Y", "equip_loco_remote": "Y", "activity_scheduledmaint": "Y", "equip_location_other": null, "describeevent_narrative": "Lorem ipsum dolor sit amet, consetetur sadipscing elitr, sed diam nonumy eirmod tempor invidunt ut labore et dolore magna aliquyam erat, sed diam voluptua. At vero eos et accusam et justo duo dolores et ea rebum. Stet clita kasd gubergren, no sea takimata sanctus est Lorem ipsum dolor sit amet. Lorem ipsum dolor sit amet, consetetur sadipscing elitr,  sed diam nonumy eirmod tempor invidunt ut labore et dolore magna aliquyam erat, sed diam voluptua. At vero eos et accusam et justo duo dolores et ea rebum. Stet clita kasd gubergren, no sea takimata sanctus est Lorem ipsum dolor sit amet. Lorem ipsum dolor sit amet, consetetur sadipscing elitr,  sed diam nonumy eirmod tempor invidunt ut labore et dolore magna aliquyam erat, sed diam voluptua. At vero eos et accusam et justo duo dolores et ea rebum. Stet clita kasd gubergren, no sea takimata sanctus est Lorem ipsum dolor sit amet.\n\nDuis autem vel eum iriure dolor in hendrerit in vulputate velit esse molestie consequat, vel illum dolore eu feugiat nulla facilisis at vero eros et accumsan et iusto odio dignissim qui blandit praesent luptatum zzril delenit augue duis dolore te feugait nulla facilisi. Lorem ipsum dolor sit amet, consectetuer adipiscing elit, sed diam nonummy nibh euismod tincidunt ut laoreet dolore magna aliquam erat volutpat.\n\nUt wisi enim ad minim veniam, quis nostrud exerci tation ullamcorper suscipit lobortis nisl ut aliquip ex ea commodo consequat. Duis autem vel eum iriure dolor in hendrerit in vulputate velit esse molestie consequat, vel illum dolore eu feugiat nulla facilisis at vero eros et accumsan et iusto odio dignissim qui blandit praesent luptatum zzril delenit augue duis dolore te feugait nulla facilisi.\n\nSpecial Characters pasted from Word\n\\e\\a\n:\n#\n/\n\\\n\u00bf\u00bf\u00bf\n\u00bf\u00bf\u00bf\n\n***** OVERFLOW TEXT *****\nEquip_Type_InvolvedCarKind: ['caboose']\n\nType_Event_Situation: ['newbie on the train']\n\nEquip_Loco_MakeModel: ['75555']\n\n", "activity_opvehicleequipment": null, "qual_bluesignalprotection": "Y", "equip_freight_empties": "545", "equip_passenger_cars": "54", "reporter_laborer": "Y", "reporter_carman": null, "activity_other": null, "activity_briefings": "N", "log_id": "ERS_G 2014-02-12 12:09:29.529750", "qual_locoengineercertification": null, "activity_inspection": null, "equip_location_yard": null, "weather_other_writein": null, "weather_other": null, "equip_oprules": "NORAC", "equip_type_involvedcarkind": "caboose", "equip_passenger_serv": "33", "weather_hail": null, "equip_passenger_cab": null, "rptrlocation_other_writein": null, "reporter_hostlerinside": "Y", "qual_other_writein": null, "equip_freight_tons": "677", "qual_locomotiveinspection": null, "qual_fraglazing": null, "activity_testing": null, "activity_documentation": "Y", "equip_type": "Other", "shiftduringevent_other_writein": null, "reporter_pipefitter": null, "equip_loco_dist": "N", "equip_loco_headend": "56", "reporter_machinist": null, "qual_safetyappliances": null, "workgroupsize": null, "lightvisibility_light": "Daylight", "equip_type_other_writein": "Garbage Carrier", "reporter_boilermaker": null, "weather_thunderstormlightning": null}
{"equip_freight_loads": "22", "equip_location_maintrack": null, "rptrlocation": "On / under / between Motive Power", "reporter_other": null, "activity_installation": null, "equip_oprules_bluesignal": "Y", "activity_other_writein": null, "activity_repairreplace": null, "equip_freight_length": "45", "reporter_electrician": null, "equip_location_repairfacility": null, "shiftduringevent_assignedshift": null, "weather_clear": null, "lightvisibility_workarea": "Off", "qual_passengercarinspection": null, "qual_airbrakeinspections": null, "reporter_other_writein": null, "equip_loco_positiontrain": "rear", "reporter_manager": null, "rptrexperience_railroad": "3354", "equip_status_releasedserv": "N", "weather_snow": null, "equip_status_maintdeferred": "Y", "prt_send": null, "equip_location_passengerst": null, "equip_loco_makemodel": "222", "equip_location_other_writein": null, "shiftduringevent_hoursinto": null, "reporter_foreman": null, "lightvisibility_reducedvis": null, "lightvisibility_reducedvis_ft": null, "shiftduringevent_emergencyduty": null, "shiftduringevent_other": null, "qual_freightcarinspection": null, "equip_status_reqcorrectdoc": "N", "weather_fog": null, "weather_hazesmoke": null, "reporter_trainee": null, "weather_ice": null, "weather_rain": "Y", "activity_blockjackrerail": null, "weather_wind": null, "equip_status_recordscomp": "Y", "rptrlocation_box1": "Other Track", "equip_oprules_other_writein": null, "qual_other": null, "equip_location_industry": null, "equip_status_movingrepair": "Y", "rptrexperience_craft": "55", "qual_conductorcertification": null, "qual_rearendmarkereot": null, "shiftduringevent_overtimeduty": "Y", "equip_loco_remote": "Y", "activity_scheduledmaint": null, "equip_location_other": null, "describeevent_narrative": "This is the second report to submit for HTML testing.\n\nLorem ipsum dolor sit amet, consetetur sadipscing elitr, sed diam nonumy eirmod tempor invidunt ut labore et dolore magna aliquyam erat, sed diam voluptua. At vero eos et accusam et justo duo dolores et ea rebum. Stet clita kasd gubergren, no sea takimata sanctus est Lorem ipsum dolor sit amet. Lorem ipsum dolor sit amet, consetetur sadipscing elitr,  sed diam nonumy eirmod tempor invidunt ut labore et dolore magna aliquyam erat, sed diam voluptua. At vero eos et accusam et justo duo dolores et ea rebum. Stet clita kasd gubergren, no sea takimata sanctus est Lorem ipsum dolor sit amet. Lorem ipsum dolor sit amet, consetetur sadipscing elitr,  sed diam nonumy eirmod tempor invidunt ut labore et dolore magna aliquyam erat, sed diam voluptua. At vero eos et accusam et justo duo dolores et ea rebum. Stet clita kasd gubergren, no sea takimata sanctus est Lorem ipsum dolor sit amet.\n\n\n\n***** OVERFLOW TEXT *****\nEquip_Type_InvolvedCarKind: ['engine']\n\nType_Event_Situation: ['this is an exciting day']\n\nEquip_Loco_MakeModel: ['222']\n\n", "activity_opvehicleequipment": null, "qual_bluesignalprotection": null, "equip_freight_empties": "63", "equip_passenger_cars": "44", "reporter_laborer": null, "reporter_carman": null, "activity_other": null, "activity_briefings": "N", "log_id": "ERS_G 2014-02-12 12:01:34.311297", "qual_locoengineercertification": "Y", "activity_inspection": null, "equip_location_yard": "Y", "weather_other_writein": null, "weather_other": null, "equip_oprules": "NORAC", "equip_type_involvedcarkind": "engine", "equip_passenger_serv": "46", "weather_hail": "Y", "equip_passenger_cab": "Y", "rptrlocation_other_writein": null, "reporter_hostlerinside": "Y", "qual_other_writein": null, "equip_freight_tons": "676", "qual_locomotiveinspection": null, "qual_fraglazing": null, "activity_testing": null, "activity_documentation": "Y", "equip_type": "Passenger / Commuter", "shiftduringevent_other_writein": null, "reporter_pipefitter": null, "equip_loco_dist": "N", "equip_loco_headend": "34", "reporter_machinist": null, "qual_safetyappliances": null, "workgroupsize": null, "lightvisibility_light": "Dawn", "equip_type_other_writein": null, "reporter_boilermaker": null, "weather_thunderstormlightning": null}
