{"involved_coworkers": "asdf", "id_updater": "EIP Processor", "date_occurrence": null, "primary_hours": null, "carrier_name": "44", "address_po_box1": null, "dt_submit": "2015-09-15T14:50:55", "address_po_box2": null, "city": null, "eventlocation_subdivision": "ee", "primary_number": null, "state": null, "intake_processed_ind": null, "eventlocation_state": "ca", "intake_mapped_ind": "N", "primary_type": null, "alternate_hours": null, "alternate_number": null, "eventlocation_neareststation": "dd", "dt_receive": "2015-09-15T14:50:55", "name": null, "zip": null, "log_id": "ERS_F 2015-09-14 14:50:55.167568", "eventlocation_facility": "ee", "type_event_situation": "asdf", "local_time": null, "eventlocation_milepost": "33", "alternate_type": null}
{"involved_coworkers": "elisa, luke, elisa", "id_updater": "EIP Processor", "date_occurrence": "01/01/2014", "primary_hours": "9:10", "carrier_name": "keolis", "address_po_box1": "here we are", "dt_submit": "2015-09-03T16:52:08", "address_po_box2": "and not here", "city": "fullerton", "eventlocation_subdivision": "subdivision 1", "primary_number": "6505151423", "state": "CA", "intake_processed_ind": null, "eventlocation_state": "OR", "intake_mapped_ind": "N", "primary_type": "Mobile", "alternate_hours": "16:5", "alternate_number": "4083512545", "eventlocation_neareststation": "nearest station 1", "dt_receive": "2015-09-03T16:52:08", "name": "elisa marfise", "zip": "94125", "log_id": "ERS_H 2015-09-02 16:52:10.440056", "eventlocation_facility": "facility 12", "type_event_situation": "this is again with the engineering report typing the N", "local_time": "16:50", "eventlocation_milepost": "88.2", "alternate_type": "Work"}
{"involved_coworkers": "here we go, test on engineering form", "id_updater": "EIP Processor", "date_occurrence": "01/01/2015", "primary_hours": "65524", "carrier_name": "pacific northwest", "address_po_box1": "399 moffett park", "dt_submit": "2015-09-03T14:02:25", "address_po_box2": null, "city": "sunnyvale", "eventlocation_subdivision": "subdivision", "primary_number": "6505155123", "state": "ca", "intake_processed_ind": null, "eventlocation_state": "FL", "intake_mapped_ind": "N", "primary_type": "Home", "alternate_hours": "1650", "alternate_number": "4085412838", "eventlocation_neareststation": "nearest station", "dt_receive": "2015-09-03T14:02:25", "name": "elisa marfise", "zip": "94800", "log_id": "ERS_H 2015-09-02 14:02:26.760210", "eventlocation_facility": "facility", "type_event_situation": "today is another day, testing the Y cases", "local_time": null, "eventlocation_milepost": "48.9", "alternate_type": "Mobile"}
{"involved_coworkers": "yeraldin sierra, elisa marfise", "id_updater": "EIP Processor", "date_occurrence": "09/05/2016", "primary_hours": "7-12", "carrier_name": "other carrier", "address_po_box1": "1232 Moffett Park Drive Suite 200", "dt_submit": "2015-09-03T13:58:20", "address_po_box2": null, "city": "Sunnyvale", "eventlocation_subdivision": "sherwin williams", "primary_number": "6505151490", "state": "CA", "intake_processed_ind": null, "eventlocation_state": "IL", "intake_mapped_ind": "N", "primary_type": "Mobile", "alternate_hours": "1-6", "alternate_number": "4085412800", "eventlocation_neareststation": "union station", "dt_receive": "2015-09-03T13:58:20", "name": "Leslie Savoye", "zip": "94089", "log_id": "ERS_G 2015-09-02 13:58:21.694317", "eventlocation_facility": "sunnyvale", "type_event_situation": "mechanical form test case all job safety briefing=Y and a few other radio b", "local_time": "16:00", "eventlocation_milepost": "15.5", "alternate_type": "Work"}
{"involved_coworkers": "yeraldin sierra, leslie savoye", "id_updater": "EIP Processor", "date_occurrence": "09/01/2015", "primary_hours": "8-12", "carrier_name": "metro north", "address_po_box1": "1232 Moffett Park Drive Suite 200", "dt_submit": "2015-09-03T13:55:40", "address_po_box2": null, "city": "Sunnyvale", "eventlocation_subdivision": "sherwin williams", "primary_number": "6505151490", "state": "CA", "intake_processed_ind": null, "eventlocation_state": "IL", "intake_mapped_ind": "N", "primary_type": "Home", "alternate_hours": "12-9", "alternate_number": "4085412800", "eventlocation_neareststation": "union station", "dt_receive": "2015-09-03T13:55:40", "name": "Leslie Savoye", "zip": "94089", "log_id": "ERS_G 2015-09-02 13:55:41.482006", "eventlocation_facility": "sunnyvale", "type_event_situation": "mechanical form test case all NO", "local_time": "14:20", "eventlocation_milepost": "15.5", "alternate_type": "Mobile"}
{"involved_coworkers": "yeraldin sierra, leslie savoye", "id_updater": "EIP Processor", "date_occurrence": "09/03/2015", "primary_hours": "7-12", "carrier_name": "metro north", "address_po_box1": "1232 Moffett Park Drive Suite 200", "dt_submit": "2015-09-03T13:52:40", "address_po_box2": null, "city": "Sunnyvale", "eventlocation_subdivision": "sherwin williams", "primary_number": "6505151490", "state": "CA", "intake_processed_ind": null, "eventlocation_state": "IL", "intake_mapped_ind": "N", "primary_type": "Mobile", "alternate_hours": "1-6", "alternate_number": "4085412800", "eventlocation_neareststation": "union station", "dt_receive": "2015-09-03T13:52:40", "name": "Leslie Savoye", "zip": "94089", "log_id": "ERS_G 2015-09-02 13:52:41.821670", "eventlocation_facility": "sunnyvale", "type_event_situation": "mechanical form test case all Yes", "local_time": null, "eventlocation_milepost": "15.5", "alternate_type": "Work"}
{"involved_coworkers": "selenium didn't save action", "id_updater": "EIP Processor", "date_occurrence": "05/06/2012", "primary_hours": "9-5", "carrier_name": "NJT", "address_po_box1": "2306 markham Avenue", "dt_submit": "2015-09-03T13:44:24", "address_po_box2": null, "city": "San Jose", "eventlocation_subdivision": "elisa", "primary_number": "4083900595", "state": "CA", "intake_processed_ind": null, "eventlocation_state": "ca", "intake_mapped_ind": "N", "primary_type": "Home", "alternate_hours": "12-6", "alternate_number": "6505412838", "eventlocation_neareststation": "union station", "dt_receive": "2015-09-03T13:44:24", "name": "michael marfise", "zip": "95125", "log_id": "ERS_F 2015-09-02 13:44:25.814617", "eventlocation_facility": "marfise", "type_event_situation": "here wego again", "local_time": "01:23", "eventlocation_milepost": "99.1", "alternate_type": "Work"}
{"involved_coworkers": "Inserted by Elisa Marfise", "id_updater": "EIP Processor", "date_occurrence": "05/06/2015", "primary_hours": "5-10", "carrier_name": "amtrak", "address_po_box1": "Today is a great day", "dt_submit": "2015-09-03T11:20:01", "address_po_box2": "How are you today", "city": "San Jose", "eventlocation_subdivision": "test case", "primary_number": "4083900595", "state": "CA", "intake_processed_ind": null, "eventlocation_state": "il", "intake_mapped_ind": "N", "primary_type": "Home", "alternate_hours": "6-12", "alternate_number": "4085412838", "eventlocation_neareststation": "amtrak yard", "dt_receive": "2015-09-03T11:20:01", "name": "Elisa Marfise", "zip": "95125", "log_id": "ERS_F 2015-09-02 11:20:02.604396", "eventlocation_facility": "union station chicago", "type_event_situation": "Test Case Number 1", "local_time": "13:50", "eventlocation_milepost": "99.8", "alternate_type": "Mobile"}
